<svg id="Layer_1" data-name="Layer 1" xmlns="http://www.w3.org/2000/svg" viewBox="0 0 350 59.61">
  <g id="Component_57_5" data-name="Component 57 5">
    <path id="Path_260" data-name="Path 260" class="cls-1" d="M48.28,47.72l76.82,8.93L204.78,39l56-36,43.17,24.52" />
  </g>
</svg>