<svg id="Layer_1" data-name="Layer 1" xmlns="http://www.w3.org/2000/svg" viewBox="0 0 350 65.65">
  <g id="Component_61_3" data-name="Component 61 3">
    <path id="Path_311" data-name="Path 311" class="cls-1" d="M169.44,19.44l-94.53-5.7L227.6,62.06,288.24,3.59Z" />
  </g>
</svg>