<svg xmlns="http://www.w3.org/2000/svg" width="1692.199" height="278.113" viewBox="0 0 1692.199 278.113">
  <path id="Path_260" data-name="Path 260" d="M4933.211-736.9l893.457-35.953,393.615-236.041,398.027,184.348" transform="translate(-4930.093 1011.891)" fill="none" stroke="#ffce00" stroke-linecap="round" stroke-linejoin="round" stroke-width="6"/>
</svg>
